[{
"name" : "Inbox",
"description" : "All your task goes here",
"id" : "all",
"icon" : "fa fa-inbox"
},{
"name" : "Started",
"description" : "All your task goes here",
"id" : "started",
"icon" : "fa fa-star"
},{
"name" : "Custom Category",
"description" : "All your task goes here",
"id" : "customCat",
"icon" : "fa fa-paper-plane"
},
{"name" : "Personal Category",
"description" : "All your task goes here",
"id" : "personalCat",
"icon" : "fa fa-reddit"
},
{"name" : "Completed",
"description" : "All your task goes here",
"id" : "completed",
"icon" : "fa fa-check"
}]